…
``` r
#merge snp into pols
snp_pols = left_join(pols_month_df, snp_df, by = c("year", "month"))
```

    ## Warning: Column `month` joining factors with different levels, coercing to
    ## character vector

``` r
snp_pols
```

    ## # A tibble: 822 x 11
    ##     year month gov_gop sen_gop rep_gop gov_dem sen_dem rep_dem president
    ##    <int> <chr>   <dbl>   <dbl>   <dbl>   <dbl>   <dbl>   <dbl> <chr>    
    ##  1  1947 Janu~      23      51     253      23      45     198 dem      
    ##  2  1947 Febr~      23      51     253      23      45     198 dem      
    ##  3  1947 March      23      51     253      23      45     198 dem      
    ##  4  1947 April      23      51     253      23      45     198 dem      
    ##  5  1947 May        23      51     253      23      45     198 dem      
    ##  6  1947 June       23      51     253      23      45     198 dem      
    ##  7  1947 July       23      51     253      23      45     198 dem      
    ##  8  1947 Augu~      23      51     253      23      45     198 dem      
    ##  9  1947 Sept~      23      51     253      23      45     198 dem      
    ## 10  1947 Octo~      23      51     253      23      45     198 dem      
    ## # ... with 812 more rows, and 2 more variables: day <int>, close <dbl>

``` r
#merge unemployment into the result
snp_pols_unemploy = left_join(snp_pols, unemploy_df, by = c("year", "month"))
```

    ## Warning: Column `month` joining character vector and factor, coercing into
    ## character vector

``` r
snp_pols_unemploy
```

    ## # A tibble: 822 x 12
    ##     year month gov_gop sen_gop rep_gop gov_dem sen_dem rep_dem president
    ##    <int> <chr>   <dbl>   <dbl>   <dbl>   <dbl>   <dbl>   <dbl> <chr>    
    ##  1  1947 Janu~      23      51     253      23      45     198 dem      
    ##  2  1947 Febr~      23      51     253      23      45     198 dem      
    ##  3  1947 March      23      51     253      23      45     198 dem      
    ##  4  1947 April      23      51     253      23      45     198 dem      
    ##  5  1947 May        23      51     253      23      45     198 dem      
    ##  6  1947 June       23      51     253      23      45     198 dem      
    ##  7  1947 July       23      51     253      23      45     198 dem      
    ##  8  1947 Augu~      23      51     253      23      45     198 dem      
    ##  9  1947 Sept~      23      51     253      23      45     198 dem      
    ## 10  1947 Octo~      23      51     253      23      45     198 dem      
    ## # ... with 812 more rows, and 3 more variables: day <int>, close <dbl>,
    ## #   unemployment <dbl>
…
